    {  
        "employees": 
		{
			"employee 1":
			{  
				"name":"sonoo",   
				"age":34,   
				"married":true  
			}
			,
			"employee 2":
			{
				"name":"sanchit",
				"age":21,
				"married":false
			}
			,
			"employee 3":
			{
				"name":"Peter",
				"age":45,
				"married":false
			}
		}
		  
    }  

